<svg width="31" height="10" viewBox="0 0 31 10" fill="none" xmlns="http://www.w3.org/2000/svg">
<g clip-path="url(#clip0_209_318)">
<path d="M8.91362 5.15135C8.91362 5.9996 8.66201 6.82879 8.19061 7.534C7.71922 8.23921 7.04924 8.78875 6.26543 9.11307C5.48163 9.4374 4.61924 9.52194 3.78737 9.356C2.95551 9.19006 2.19156 8.78109 1.59219 8.18085C0.992826 7.58061 0.584975 6.81606 0.420247 5.98396C0.25552 5.15185 0.341319 4.28958 0.666788 3.50626C0.992257 2.72293 1.54277 2.05374 2.24867 1.58338C2.95456 1.11302 3.78412 0.86261 4.63237 0.863847C5.76841 0.865502 6.85734 1.31795 7.66006 2.12183C8.46277 2.92572 8.91363 4.01531 8.91362 5.15135ZM2.48862 5.15135C2.48862 5.57534 2.61435 5.98981 2.84991 6.34235C3.08547 6.69489 3.42028 6.96966 3.812 7.13191C4.20372 7.29417 4.63475 7.33662 5.0506 7.2539C5.46645 7.17119 5.84843 6.96702 6.14823 6.66721C6.44804 6.3674 6.65222 5.98542 6.73493 5.56957C6.81765 5.15372 6.7752 4.72269 6.61294 4.33097C6.45069 3.93925 6.17592 3.60444 5.82338 3.36888C5.47084 3.13333 5.05637 3.0076 4.63237 3.0076C4.06432 3.00925 3.52001 3.23563 3.11834 3.63731C2.71666 4.03898 2.49027 4.5833 2.48862 5.15135Z" fill="#F0DCBC"/>
<path d="M19.6324 5.15134C19.6324 5.99933 19.3809 6.82827 18.9098 7.53335C18.4387 8.23842 17.7691 8.78796 16.9856 9.11247C16.2022 9.43699 15.3401 9.52189 14.5084 9.35646C13.6767 9.19102 12.9128 8.78268 12.3132 8.18306C11.7135 7.58344 11.3052 6.81948 11.1398 5.98779C10.9743 5.1561 11.0592 4.29402 11.3837 3.51059C11.7083 2.72715 12.2578 2.05753 12.9629 1.58641C13.6679 1.1153 14.4969 0.863841 15.3449 0.863841C16.4815 0.865495 17.5711 1.31774 18.3748 2.12145C19.1785 2.92515 19.6307 4.01473 19.6324 5.15134ZM13.2011 5.15134C13.2011 5.57533 13.3269 5.98981 13.5624 6.34234C13.798 6.69488 14.1328 6.96965 14.5245 7.13191C14.9162 7.29416 15.3473 7.33662 15.7631 7.2539C16.1789 7.17118 16.5609 6.96701 16.8607 6.6672C17.1605 6.36739 17.3647 5.98541 17.4474 5.56957C17.5302 5.15372 17.4877 4.72268 17.3254 4.33096C17.1632 3.93924 16.8884 3.60444 16.5359 3.36888C16.1833 3.13332 15.7689 3.00759 15.3449 3.00759C14.7768 3.00924 14.2325 3.23563 13.8308 3.6373C13.4292 4.03898 13.2028 4.58329 13.2011 5.15134Z" fill="#F0DCBC"/>
<path d="M30.345 5.15134C30.345 5.99933 30.0936 6.82827 29.6224 7.53335C29.1513 8.23842 28.4817 8.78796 27.6983 9.11247C26.9148 9.43699 26.0528 9.52189 25.2211 9.35646C24.3894 9.19102 23.6254 8.78268 23.0258 8.18306C22.4262 7.58344 22.0178 6.81948 21.8524 5.98779C21.687 5.1561 21.7719 4.29402 22.0964 3.51059C22.4209 2.72715 22.9704 2.05753 23.6755 1.58641C24.3806 1.1153 25.2095 0.863841 26.0575 0.863841C27.1941 0.865495 28.2837 1.31774 29.0874 2.12145C29.8911 2.92515 30.3434 4.01473 30.345 5.15134ZM23.9138 5.15134C23.9138 5.57533 24.0395 5.98981 24.2751 6.34234C24.5106 6.69488 24.8454 6.96965 25.2371 7.13191C25.6289 7.29416 26.0599 7.33662 26.4757 7.2539C26.8916 7.17118 27.2736 6.96701 27.5734 6.6672C27.8732 6.36739 28.0774 5.98541 28.1601 5.56957C28.2428 5.15372 28.2003 4.72268 28.0381 4.33096C27.8758 3.93924 27.6011 3.60444 27.2485 3.36888C26.896 3.13332 26.4815 3.00759 26.0575 3.00759C25.4895 3.00924 24.9452 3.23563 24.5435 3.6373C24.1418 4.03898 23.9154 4.58329 23.9138 5.15134Z" fill="#F0DCBC"/>
</g>
<defs>
<clipPath id="clip0_209_318">
<rect width="8.56875" height="30" fill="white" transform="translate(0.344971 9.43884) rotate(-90)"/>
</clipPath>
</defs>
</svg>
